…
## Generate 5000 datasets from the model

``` r
output = vector("list", 5000)

for (i in 1:5000) {
  output[[i]] = ttest_sim(30)
}

sim_results = bind_rows(output)
sim_results
```

    ## # A tibble: 5,000 x 2
    ##    pvalue   mean
    ##     <dbl>  <dbl>
    ##  1 0.629   0.412
    ##  2 0.368   0.664
    ##  3 0.534   0.551
    ##  4 0.487   0.567
    ##  5 0.0599 -1.65 
    ##  6 0.229   1.19 
    ##  7 0.738   0.334
    ##  8 0.209  -1.19 
    ##  9 0.887   0.122
    ## 10 0.472   0.684
    ## # … with 4,990 more rows
…
